[Wed Mar 31 12:45:16 2021], Epoch:[1/300]  giou:0.1557, obj:0.4719, cls:0.0409, Total:0.6685, bboxes:674, iter:900    0.4918   0.03412   0.02703  0.006959   0.08905    0.2414   0.01353
[Wed Mar 31 12:57:32 2021], Epoch:[2/300]  giou:0.0886, obj:0.1638, cls:0.0180, Total:0.2704, bboxes:743, iter:900    0.4988    0.3296    0.2639    0.0949   0.07066    0.1817    0.0085
[Wed Mar 31 13:09:36 2021], Epoch:[3/300]  giou:0.0724, obj:0.1057, cls:0.0117, Total:0.1898, bboxes:444, iter:900    0.6352    0.4356    0.3865    0.1743   0.05908    0.1766  0.006914
[Wed Mar 31 13:21:39 2021], Epoch:[4/300]  giou:0.0661, obj:0.1312, cls:0.0106, Total:0.2079, bboxes:715, iter:900    0.6675     0.522    0.4644    0.2399   0.05494    0.1696  0.006129
[Wed Mar 31 13:33:29 2021], Epoch:[5/300]  giou:0.0606, obj:0.1108, cls:0.0082, Total:0.1797, bboxes:557, iter:900    0.6932    0.5503    0.4971    0.2675   0.05309    0.1674  0.005645
[Wed Mar 31 13:45:37 2021], Epoch:[6/300]  giou:0.0616, obj:0.1348, cls:0.0094, Total:0.2059, bboxes:476, iter:900    0.6716    0.6022    0.5466    0.3019   0.05032     0.165  0.005226
[Wed Mar 31 13:57:39 2021], Epoch:[7/300]  giou:0.0678, obj:0.1882, cls:0.0102, Total:0.2662, bboxes:839, iter:900    0.7115    0.6077    0.5516    0.3081   0.04959    0.1632  0.005132
[Wed Mar 31 14:09:57 2021], Epoch:[8/300]  giou:0.0567, obj:0.1006, cls:0.0079, Total:0.1653, bboxes:533, iter:900     0.682     0.641    0.5862    0.3301   0.04854    0.1623  0.004961
[Wed Mar 31 14:21:50 2021], Epoch:[9/300]  giou:0.0651, obj:0.2397, cls:0.0084, Total:0.3132, bboxes:567, iter:900    0.6883    0.6457    0.5935    0.3328   0.04827    0.1615  0.004938
[Wed Mar 31 14:33:56 2021], Epoch:[10/300]  giou:0.0648, obj:0.2749, cls:0.0100, Total:0.3497, bboxes:329, iter:900    0.6869    0.6536     0.589    0.3366   0.04783    0.1596  0.005016
[Wed Mar 31 14:46:00 2021], Epoch:[11/300]  giou:0.0610, obj:0.1897, cls:0.0074, Total:0.2581, bboxes:984, iter:900    0.7156    0.6466    0.5899    0.3509   0.04623    0.1566  0.004717
[Wed Mar 31 14:58:15 2021], Epoch:[12/300]  giou:0.0511, obj:0.0899, cls:0.0088, Total:0.1497, bboxes:448, iter:900    0.7077    0.6608    0.6076    0.3642   0.04539    0.1564  0.004605
[Wed Mar 31 15:10:21 2021], Epoch:[13/300]  giou:0.0557, obj:0.1487, cls:0.0070, Total:0.2113, bboxes:557, iter:900    0.7223    0.6491    0.5937    0.3561   0.04503    0.1552  0.004675
[Wed Mar 31 15:22:37 2021], Epoch:[14/300]  giou:0.0512, obj:0.1015, cls:0.0066, Total:0.1593, bboxes:937, iter:900    0.7198     0.673    0.6154    0.3707   0.04469    0.1548  0.004591
[Wed Mar 31 15:34:39 2021], Epoch:[15/300]  giou:0.0534, obj:0.1366, cls:0.0078, Total:0.1979, bboxes:672, iter:900    0.7247    0.6755    0.6182    0.3785   0.04412    0.1541  0.004576
[Wed Mar 31 15:46:42 2021], Epoch:[16/300]  giou:0.0581, obj:0.1517, cls:0.0093, Total:0.2190, bboxes:631, iter:900    0.7278     0.676    0.6224    0.3836   0.04379    0.1531  0.004458
[Wed Mar 31 15:58:57 2021], Epoch:[17/300]  giou:0.0550, obj:0.1683, cls:0.0091, Total:0.2324, bboxes:376, iter:900    0.7387    0.6732    0.6228    0.3853    0.0435    0.1524   0.00445
[Wed Mar 31 16:11:06 2021], Epoch:[18/300]  giou:0.0543, obj:0.1289, cls:0.0078, Total:0.1909, bboxes:522, iter:900    0.7323    0.6859    0.6274    0.3888   0.04329    0.1516  0.004427
[Wed Mar 31 16:23:06 2021], Epoch:[19/300]  giou:0.0563, obj:0.1729, cls:0.0070, Total:0.2362, bboxes:706, iter:900    0.7392    0.6787    0.6259    0.3946   0.04285    0.1511  0.004395
[Wed Mar 31 16:35:02 2021], Epoch:[20/300]  giou:0.0550, obj:0.1948, cls:0.0083, Total:0.2581, bboxes:520, iter:900      0.74    0.6914    0.6371    0.3996   0.04239    0.1504  0.004259
[Wed Mar 31 16:47:14 2021], Epoch:[21/300]  giou:0.0516, obj:0.1405, cls:0.0058, Total:0.1979, bboxes:752, iter:900    0.7277    0.6999    0.6434    0.4073   0.04221    0.1502  0.004297
[Wed Mar 31 16:59:13 2021], Epoch:[22/300]  giou:0.0543, obj:0.1481, cls:0.0082, Total:0.2106, bboxes:479, iter:900    0.7319    0.6957     0.645    0.4069   0.04201    0.1499  0.004352
[Wed Mar 31 17:11:19 2021], Epoch:[23/300]  giou:0.0494, obj:0.0988, cls:0.0068, Total:0.1549, bboxes:667, iter:900    0.7317     0.695    0.6421    0.4083   0.04169    0.1493  0.004227
[Wed Mar 31 17:23:32 2021], Epoch:[24/300]  giou:0.0496, obj:0.1154, cls:0.0063, Total:0.1712, bboxes:288, iter:900    0.7217    0.7124    0.6515    0.4136   0.04181    0.1497  0.004331
[Wed Mar 31 17:35:30 2021], Epoch:[25/300]  giou:0.0499, obj:0.1137, cls:0.0071, Total:0.1706, bboxes:419, iter:900    0.7406    0.6943    0.6435    0.4114   0.04131    0.1484  0.004245
[Wed Mar 31 17:47:26 2021], Epoch:[26/300]  giou:0.0444, obj:0.0783, cls:0.0053, Total:0.1280, bboxes:736, iter:900    0.7275    0.7171    0.6574    0.4198   0.04122    0.1482  0.004218
[Wed Mar 31 17:59:35 2021], Epoch:[27/300]  giou:0.0560, obj:0.1430, cls:0.0073, Total:0.2062, bboxes:492, iter:900    0.7544    0.6951    0.6487    0.4166   0.04088     0.148  0.004155
[Wed Mar 31 18:11:37 2021], Epoch:[28/300]  giou:0.0533, obj:0.1270, cls:0.0061, Total:0.1865, bboxes:540, iter:900    0.7363    0.7151     0.662    0.4285   0.04075    0.1472  0.004098
[Wed Mar 31 18:23:44 2021], Epoch:[29/300]  giou:0.0587, obj:0.2115, cls:0.0073, Total:0.2775, bboxes:551, iter:900    0.7421    0.7086    0.6575    0.4275   0.04055    0.1465  0.004126
[Wed Mar 31 18:36:01 2021], Epoch:[30/300]  giou:0.0577, obj:0.1746, cls:0.0064, Total:0.2386, bboxes:576, iter:900    0.7316    0.7206    0.6646    0.4295   0.04051    0.1472  0.004173
[Wed Mar 31 18:48:09 2021], Epoch:[31/300]  giou:0.0568, obj:0.1938, cls:0.0083, Total:0.2589, bboxes:601, iter:900     0.738    0.7137    0.6592    0.4287   0.04035    0.1465  0.004131
[Wed Mar 31 19:00:13 2021], Epoch:[32/300]  giou:0.0522, obj:0.1286, cls:0.0067, Total:0.1875, bboxes:697, iter:900     0.744    0.7142     0.659    0.4291   0.04012    0.1463  0.004087
[Wed Mar 31 19:12:23 2021], Epoch:[33/300]  giou:0.0491, obj:0.1420, cls:0.0058, Total:0.1970, bboxes:669, iter:900    0.7417    0.7228    0.6705    0.4416   0.04002     0.146  0.004054
[Wed Mar 31 19:24:27 2021], Epoch:[34/300]  giou:0.0527, obj:0.1311, cls:0.0066, Total:0.1903, bboxes:825, iter:900    0.7471    0.7146    0.6663    0.4336   0.03997     0.146  0.004084
[Wed Mar 31 19:36:19 2021], Epoch:[35/300]  giou:0.0503, obj:0.1063, cls:0.0065, Total:0.1631, bboxes:657, iter:900    0.7392    0.7181    0.6665    0.4373   0.03977    0.1457  0.004046
[Wed Mar 31 19:48:24 2021], Epoch:[36/300]  giou:0.0448, obj:0.0817, cls:0.0060, Total:0.1325, bboxes:631, iter:900    0.7451    0.7187    0.6629    0.4359   0.03963    0.1451  0.004034
[Wed Mar 31 20:00:33 2021], Epoch:[37/300]  giou:0.0499, obj:0.1319, cls:0.0065, Total:0.1883, bboxes:568, iter:900    0.7429    0.7234    0.6693    0.4405   0.03954    0.1449  0.004016
[Wed Mar 31 20:12:46 2021], Epoch:[38/300]  giou:0.0457, obj:0.0908, cls:0.0068, Total:0.1432, bboxes:822, iter:900    0.7416    0.7178     0.668    0.4418   0.03933    0.1445  0.004008
[Wed Mar 31 20:24:57 2021], Epoch:[39/300]  giou:0.0434, obj:0.0975, cls:0.0061, Total:0.1471, bboxes:386, iter:900    0.7404    0.7187    0.6658    0.4411   0.03922    0.1443  0.004016
[Wed Mar 31 20:37:00 2021], Epoch:[40/300]  giou:0.0543, obj:0.1768, cls:0.0069, Total:0.2380, bboxes:589, iter:900    0.7486    0.7238    0.6745    0.4469   0.03917    0.1445  0.003932
[Wed Mar 31 20:49:06 2021], Epoch:[41/300]  giou:0.0558, obj:0.1862, cls:0.0063, Total:0.2483, bboxes:661, iter:900     0.736    0.7284    0.6754    0.4454    0.0391    0.1446  0.003967
[Wed Mar 31 21:01:13 2021], Epoch:[42/300]  giou:0.0435, obj:0.0892, cls:0.0052, Total:0.1379, bboxes:435, iter:900    0.7439    0.7269     0.672    0.4474   0.03901    0.1442  0.003992
[Wed Mar 31 21:13:13 2021], Epoch:[43/300]  giou:0.0465, obj:0.0867, cls:0.0057, Total:0.1389, bboxes:632, iter:900    0.7383    0.7289    0.6739    0.4505   0.03895    0.1441  0.003997
[Wed Mar 31 21:25:10 2021], Epoch:[44/300]  giou:0.0458, obj:0.0942, cls:0.0055, Total:0.1456, bboxes:588, iter:900    0.7469     0.728    0.6779    0.4521   0.03878    0.1436  0.003941
[Wed Mar 31 21:37:29 2021], Epoch:[45/300]  giou:0.0475, obj:0.1184, cls:0.0058, Total:0.1717, bboxes:404, iter:900    0.7493    0.7315    0.6767    0.4507   0.03882    0.1436  0.003917
[Wed Mar 31 21:49:41 2021], Epoch:[46/300]  giou:0.0447, obj:0.1084, cls:0.0058, Total:0.1589, bboxes:513, iter:900    0.7439    0.7282    0.6773    0.4523   0.03863    0.1435  0.003914
[Wed Mar 31 22:01:48 2021], Epoch:[47/300]  giou:0.0499, obj:0.1856, cls:0.0072, Total:0.2427, bboxes:680, iter:900     0.741    0.7321    0.6777    0.4519   0.03856    0.1432  0.003919
[Wed Mar 31 22:13:51 2021], Epoch:[48/300]  giou:0.0551, obj:0.1985, cls:0.0070, Total:0.2606, bboxes:402, iter:900    0.7454     0.726    0.6746    0.4492   0.03847     0.143  0.003918
[Wed Mar 31 22:25:59 2021], Epoch:[49/300]  giou:0.0459, obj:0.1001, cls:0.0055, Total:0.1515, bboxes:546, iter:900    0.7373    0.7368    0.6838    0.4562   0.03837    0.1427  0.003894
[Wed Mar 31 22:37:54 2021], Epoch:[50/300]  giou:0.0447, obj:0.0966, cls:0.0052, Total:0.1466, bboxes:623, iter:900    0.7418     0.738    0.6847     0.457   0.03832    0.1429  0.003912
[Wed Mar 31 22:49:57 2021], Epoch:[51/300]  giou:0.0499, obj:0.1431, cls:0.0065, Total:0.1996, bboxes:658, iter:900    0.7388    0.7429     0.683    0.4601   0.03819    0.1425   0.00391
[Wed Mar 31 23:02:10 2021], Epoch:[52/300]  giou:0.0489, obj:0.1120, cls:0.0070, Total:0.1678, bboxes:788, iter:900    0.7491    0.7371    0.6858    0.4603   0.03815    0.1422  0.003863
[Wed Mar 31 23:14:17 2021], Epoch:[53/300]  giou:0.0422, obj:0.0831, cls:0.0054, Total:0.1307, bboxes:715, iter:900     0.746    0.7382    0.6853    0.4622   0.03795    0.1417  0.003839
[Wed Mar 31 23:26:29 2021], Epoch:[54/300]  giou:0.0436, obj:0.0990, cls:0.0058, Total:0.1484, bboxes:778, iter:900    0.7463    0.7394    0.6848    0.4615   0.03795    0.1418  0.003826
[Wed Mar 31 23:38:29 2021], Epoch:[55/300]  giou:0.0448, obj:0.0952, cls:0.0054, Total:0.1455, bboxes:568, iter:900    0.7438    0.7406    0.6859    0.4631   0.03789    0.1416  0.003844
[Wed Mar 31 23:50:26 2021], Epoch:[56/300]  giou:0.0465, obj:0.1336, cls:0.0061, Total:0.1863, bboxes:617, iter:900    0.7412    0.7356    0.6824    0.4606   0.03785    0.1417  0.003844
[Thu Apr  1 00:02:25 2021], Epoch:[57/300]  giou:0.0449, obj:0.1109, cls:0.0055, Total:0.1613, bboxes:551, iter:900    0.7399     0.737    0.6835    0.4607   0.03768    0.1414  0.003846
[Thu Apr  1 00:14:28 2021], Epoch:[58/300]  giou:0.0477, obj:0.1131, cls:0.0066, Total:0.1674, bboxes:785, iter:900    0.7475    0.7367    0.6845     0.462   0.03771    0.1413  0.003814
[Thu Apr  1 00:26:29 2021], Epoch:[59/300]  giou:0.0488, obj:0.1108, cls:0.0065, Total:0.1661, bboxes:647, iter:900    0.7439    0.7376    0.6832    0.4637   0.03764    0.1415  0.003796
[Thu Apr  1 00:38:31 2021], Epoch:[60/300]  giou:0.0467, obj:0.1114, cls:0.0049, Total:0.1630, bboxes:719, iter:900    0.7508    0.7332    0.6838     0.463   0.03758     0.141  0.003793
[Thu Apr  1 00:50:46 2021], Epoch:[61/300]  giou:0.0519, obj:0.1741, cls:0.0064, Total:0.2325, bboxes:759, iter:900    0.7468    0.7396    0.6845     0.466   0.03751     0.141  0.003795
[Thu Apr  1 01:02:57 2021], Epoch:[62/300]  giou:0.0509, obj:0.1504, cls:0.0064, Total:0.2077, bboxes:784, iter:900    0.7503    0.7392    0.6867    0.4664   0.03741    0.1406   0.00377
[Thu Apr  1 01:15:03 2021], Epoch:[63/300]  giou:0.0499, obj:0.1390, cls:0.0063, Total:0.1952, bboxes:640, iter:900    0.7439    0.7384    0.6866    0.4655   0.03736    0.1408   0.00378
[Thu Apr  1 01:27:10 2021], Epoch:[64/300]  giou:0.0519, obj:0.1549, cls:0.0065, Total:0.2133, bboxes:483, iter:900    0.7495      0.74    0.6852     0.466   0.03734    0.1406  0.003757
[Thu Apr  1 01:39:10 2021], Epoch:[65/300]  giou:0.0546, obj:0.1878, cls:0.0074, Total:0.2498, bboxes:760, iter:900    0.7491    0.7379    0.6878    0.4669   0.03728    0.1406  0.003767
[Thu Apr  1 01:51:15 2021], Epoch:[66/300]  giou:0.0546, obj:0.1658, cls:0.0067, Total:0.2272, bboxes:646, iter:900    0.7465     0.741    0.6887    0.4676   0.03725    0.1403  0.003736
[Thu Apr  1 02:03:18 2021], Epoch:[67/300]  giou:0.0517, obj:0.2057, cls:0.0074, Total:0.2648, bboxes:444, iter:900    0.7449    0.7411    0.6893     0.468   0.03719    0.1404  0.003758
[Thu Apr  1 02:15:18 2021], Epoch:[68/300]  giou:0.0463, obj:0.1160, cls:0.0055, Total:0.1678, bboxes:812, iter:900    0.7483    0.7407    0.6876    0.4694   0.03706    0.1401  0.003707
[Thu Apr  1 02:27:19 2021], Epoch:[69/300]  giou:0.0482, obj:0.1146, cls:0.0053, Total:0.1681, bboxes:804, iter:900    0.7507    0.7387    0.6871    0.4689   0.03709      0.14  0.003712
[Thu Apr  1 02:39:22 2021], Epoch:[70/300]  giou:0.0555, obj:0.2261, cls:0.0071, Total:0.2887, bboxes:604, iter:900    0.7432    0.7438    0.6896    0.4707   0.03705      0.14  0.003736
[Thu Apr  1 02:51:32 2021], Epoch:[71/300]  giou:0.0526, obj:0.2153, cls:0.0078, Total:0.2757, bboxes:676, iter:900    0.7442     0.744    0.6898     0.471   0.03695    0.1399  0.003727
[Thu Apr  1 03:03:27 2021], Epoch:[72/300]  giou:0.0410, obj:0.0834, cls:0.0052, Total:0.1297, bboxes:617, iter:900    0.7445    0.7432    0.6896    0.4708   0.03685    0.1394  0.003724
[Thu Apr  1 03:15:24 2021], Epoch:[73/300]  giou:0.0468, obj:0.1035, cls:0.0059, Total:0.1562, bboxes:470, iter:900    0.7468    0.7438    0.6902     0.472   0.03681    0.1395  0.003707
[Thu Apr  1 03:27:31 2021], Epoch:[74/300]  giou:0.0466, obj:0.1153, cls:0.0073, Total:0.1693, bboxes:663, iter:900    0.7476    0.7435    0.6898    0.4723   0.03678    0.1396  0.003689
[Thu Apr  1 03:39:41 2021], Epoch:[75/300]  giou:0.0443, obj:0.1090, cls:0.0046, Total:0.1580, bboxes:674, iter:900    0.7456    0.7441    0.6902    0.4724    0.0368    0.1395  0.003693
[Thu Apr  1 03:51:38 2021], Epoch:[76/300]  giou:0.0487, obj:0.1464, cls:0.0086, Total:0.2037, bboxes:510, iter:900    0.7442    0.7433    0.6908    0.4738   0.03669    0.1392  0.003679
[Thu Apr  1 04:03:51 2021], Epoch:[77/300]  giou:0.0437, obj:0.0880, cls:0.0051, Total:0.1368, bboxes:752, iter:900    0.7449    0.7454     0.691     0.474   0.03669    0.1393   0.00368
[Thu Apr  1 04:15:56 2021], Epoch:[78/300]  giou:0.0422, obj:0.0905, cls:0.0064, Total:0.1391, bboxes:611, iter:900    0.7462    0.7439    0.6907    0.4733   0.03665    0.1392   0.00369
[Thu Apr  1 04:28:06 2021], Epoch:[79/300]  giou:0.0419, obj:0.0841, cls:0.0057, Total:0.1316, bboxes:694, iter:900    0.7459    0.7462    0.6906    0.4742    0.0366     0.139  0.003682
[Thu Apr  1 04:40:12 2021], Epoch:[80/300]  giou:0.0439, obj:0.0986, cls:0.0052, Total:0.1477, bboxes:670, iter:900     0.746    0.7445    0.6907    0.4747   0.03655    0.1389  0.003668
[Thu Apr  1 04:52:06 2021], Epoch:[81/300]  giou:0.0428, obj:0.0943, cls:0.0048, Total:0.1419, bboxes:355, iter:900    0.7466    0.7442    0.6915    0.4746   0.03652    0.1388  0.003672
[Thu Apr  1 05:04:00 2021], Epoch:[82/300]  giou:0.0495, obj:0.1494, cls:0.0071, Total:0.2060, bboxes:549, iter:900    0.7438    0.7457    0.6893    0.4747    0.0365    0.1389  0.003674
[Thu Apr  1 05:16:00 2021], Epoch:[83/300]  giou:0.0455, obj:0.1262, cls:0.0051, Total:0.1768, bboxes:530, iter:900    0.7402    0.7485    0.6921    0.4765   0.03642    0.1387  0.003683
[Thu Apr  1 05:28:02 2021], Epoch:[84/300]  giou:0.0515, obj:0.2060, cls:0.0083, Total:0.2659, bboxes:484, iter:900    0.7446    0.7456      0.69    0.4755   0.03641    0.1386  0.003683
[Thu Apr  1 05:40:01 2021], Epoch:[85/300]  giou:0.0431, obj:0.0926, cls:0.0066, Total:0.1423, bboxes:634, iter:900     0.744    0.7468    0.6906    0.4759   0.03637    0.1387  0.003667
[Thu Apr  1 05:52:07 2021], Epoch:[86/300]  giou:0.0434, obj:0.1083, cls:0.0064, Total:0.1581, bboxes:401, iter:900    0.7407     0.747    0.6923    0.4771   0.03632    0.1387  0.003663
[Thu Apr  1 06:04:06 2021], Epoch:[87/300]  giou:0.0423, obj:0.0979, cls:0.0055, Total:0.1457, bboxes:438, iter:900    0.7478    0.7463    0.6924    0.4776   0.03628    0.1385  0.003662
[Thu Apr  1 06:16:03 2021], Epoch:[88/300]  giou:0.0424, obj:0.0817, cls:0.0063, Total:0.1304, bboxes:464, iter:900    0.7497    0.7454    0.6911    0.4772   0.03626    0.1385  0.003648
[Thu Apr  1 06:27:56 2021], Epoch:[89/300]  giou:0.0425, obj:0.1002, cls:0.0048, Total:0.1476, bboxes:637, iter:900     0.749    0.7473     0.692    0.4777   0.03625    0.1384  0.003644
[Thu Apr  1 06:39:57 2021], Epoch:[90/300]  giou:0.0483, obj:0.1673, cls:0.0070, Total:0.2225, bboxes:570, iter:900    0.7513    0.7513    0.6965    0.4798   0.03621    0.1383  0.003622
[Thu Apr  1 06:51:55 2021], Epoch:[91/300]  giou:0.0430, obj:0.0950, cls:0.0047, Total:0.1427, bboxes:520, iter:900    0.7481    0.7508    0.6948    0.4796   0.03617    0.1382  0.003621
[Thu Apr  1 07:04:15 2021], Epoch:[92/300]  giou:0.0430, obj:0.1124, cls:0.0059, Total:0.1613, bboxes:921, iter:900     0.749    0.7523    0.6965    0.4821   0.03614    0.1381  0.003623
[Thu Apr  1 07:16:20 2021], Epoch:[93/300]  giou:0.0514, obj:0.2231, cls:0.0072, Total:0.2816, bboxes:516, iter:900     0.749    0.7524    0.6978    0.4827   0.03611     0.138  0.003621
[Thu Apr  1 07:28:25 2021], Epoch:[94/300]  giou:0.0391, obj:0.0752, cls:0.0048, Total:0.1190, bboxes:482, iter:900    0.7495    0.7518     0.696    0.4821   0.03609     0.138  0.003624
[Thu Apr  1 07:40:27 2021], Epoch:[95/300]  giou:0.0519, obj:0.2073, cls:0.0084, Total:0.2676, bboxes:487, iter:900    0.7496    0.7528    0.6989    0.4828   0.03605    0.1379  0.003628
[Thu Apr  1 07:52:34 2021], Epoch:[96/300]  giou:0.0431, obj:0.0943, cls:0.0046, Total:0.1420, bboxes:653, iter:900    0.7509     0.754     0.699    0.4833   0.03601    0.1378  0.003627
[Thu Apr  1 08:04:41 2021], Epoch:[97/300]  giou:0.0441, obj:0.1166, cls:0.0052, Total:0.1660, bboxes:704, iter:900    0.7519    0.7524    0.6996    0.4837   0.03598    0.1378  0.003613
[Thu Apr  1 08:16:42 2021], Epoch:[98/300]  giou:0.0421, obj:0.1060, cls:0.0047, Total:0.1528, bboxes:693, iter:900    0.7519    0.7541    0.7007    0.4854   0.03595    0.1377  0.003613
[Thu Apr  1 08:28:43 2021], Epoch:[99/300]  giou:0.0475, obj:0.1517, cls:0.0054, Total:0.2046, bboxes:576, iter:900    0.7517    0.7562    0.7021    0.4868   0.03592    0.1377  0.003609
[Thu Apr  1 08:40:49 2021], Epoch:[100/300]  giou:0.0426, obj:0.1069, cls:0.0054, Total:0.1549, bboxes:417, iter:900    0.7511    0.7554    0.7001    0.4852    0.0359    0.1376  0.003607
[Thu Apr  1 08:52:51 2021], Epoch:[101/300]  giou:0.0487, obj:0.1469, cls:0.0066, Total:0.2022, bboxes:786, iter:900    0.7498    0.7545    0.7006    0.4846   0.03587    0.1376  0.003609
[Thu Apr  1 09:04:54 2021], Epoch:[102/300]  giou:0.0484, obj:0.1606, cls:0.0054, Total:0.2144, bboxes:675, iter:900      0.75     0.755     0.701    0.4856   0.03583    0.1376    0.0036
[Thu Apr  1 09:16:51 2021], Epoch:[103/300]  giou:0.0470, obj:0.1564, cls:0.0065, Total:0.2100, bboxes:601, iter:900    0.7508     0.756    0.7013    0.4851   0.03581    0.1375  0.003603
[Thu Apr  1 09:28:44 2021], Epoch:[104/300]  giou:0.0463, obj:0.1330, cls:0.0063, Total:0.1856, bboxes:726, iter:900    0.7493     0.757    0.7016    0.4854   0.03579    0.1374  0.003607
[Thu Apr  1 09:40:49 2021], Epoch:[105/300]  giou:0.0524, obj:0.1698, cls:0.0061, Total:0.2283, bboxes:631, iter:900    0.7484    0.7571     0.701    0.4848   0.03578    0.1373  0.003616
[Thu Apr  1 09:52:53 2021], Epoch:[106/300]  giou:0.0400, obj:0.0851, cls:0.0049, Total:0.1301, bboxes:489, iter:900    0.7498    0.7579    0.7038    0.4869   0.03576    0.1373  0.003615
[Thu Apr  1 10:04:59 2021], Epoch:[107/300]  giou:0.0508, obj:0.1884, cls:0.0070, Total:0.2462, bboxes:483, iter:900    0.7496    0.7571    0.7013    0.4859   0.03573    0.1373  0.003607
[Thu Apr  1 10:16:55 2021], Epoch:[108/300]  giou:0.0433, obj:0.0879, cls:0.0055, Total:0.1367, bboxes:527, iter:900    0.7501    0.7576    0.7015    0.4864   0.03571    0.1373  0.003605
[Thu Apr  1 10:28:53 2021], Epoch:[109/300]  giou:0.0495, obj:0.1920, cls:0.0068, Total:0.2484, bboxes:586, iter:900    0.7491    0.7573     0.702    0.4866   0.03567    0.1372  0.003601
[Thu Apr  1 10:40:46 2021], Epoch:[110/300]  giou:0.0453, obj:0.1348, cls:0.0056, Total:0.1857, bboxes:711, iter:900    0.7517    0.7584    0.7048    0.4876   0.03566    0.1372    0.0036
[Thu Apr  1 10:52:59 2021], Epoch:[111/300]  giou:0.0440, obj:0.1215, cls:0.0053, Total:0.1708, bboxes:605, iter:900    0.7518     0.758    0.7028    0.4875   0.03563    0.1371  0.003601
[Thu Apr  1 11:04:59 2021], Epoch:[112/300]  giou:0.0420, obj:0.0914, cls:0.0043, Total:0.1377, bboxes:524, iter:900    0.7519    0.7571     0.703    0.4878   0.03561     0.137  0.003601
[Thu Apr  1 11:17:13 2021], Epoch:[113/300]  giou:0.0423, obj:0.1060, cls:0.0063, Total:0.1545, bboxes:353, iter:900    0.7515    0.7592    0.7052    0.4897   0.03559     0.137  0.003595
[Thu Apr  1 11:29:13 2021], Epoch:[114/300]  giou:0.0465, obj:0.1311, cls:0.0054, Total:0.1830, bboxes:514, iter:900    0.7544    0.7587    0.7051    0.4894   0.03557    0.1369  0.003594
[Thu Apr  1 11:41:08 2021], Epoch:[115/300]  giou:0.0493, obj:0.1535, cls:0.0058, Total:0.2086, bboxes:908, iter:900    0.7525    0.7566    0.7031    0.4891   0.03555    0.1368  0.003592
[Thu Apr  1 11:53:21 2021], Epoch:[116/300]  giou:0.0458, obj:0.1020, cls:0.0057, Total:0.1535, bboxes:581, iter:900    0.7516    0.7571    0.7035    0.4894   0.03553    0.1368  0.003591
[Thu Apr  1 12:05:16 2021], Epoch:[117/300]  giou:0.0474, obj:0.1442, cls:0.0052, Total:0.1968, bboxes:805, iter:900    0.7504    0.7565    0.7036    0.4894   0.03551    0.1368  0.003588
[Thu Apr  1 12:17:30 2021], Epoch:[118/300]  giou:0.0494, obj:0.1916, cls:0.0051, Total:0.2461, bboxes:461, iter:900    0.7504    0.7558    0.7036    0.4891    0.0355    0.1367  0.003585
[Thu Apr  1 12:29:43 2021], Epoch:[119/300]  giou:0.0463, obj:0.1528, cls:0.0063, Total:0.2053, bboxes:658, iter:900    0.7514    0.7561    0.7039    0.4893   0.03548    0.1367  0.003582
[Thu Apr  1 12:41:39 2021], Epoch:[120/300]  giou:0.0441, obj:0.1268, cls:0.0050, Total:0.1758, bboxes:773, iter:900    0.7518    0.7562     0.704    0.4897   0.03546    0.1366  0.003578
[Thu Apr  1 12:53:34 2021], Epoch:[121/300]  giou:0.0445, obj:0.1269, cls:0.0061, Total:0.1775, bboxes:535, iter:900    0.7517    0.7571    0.7039    0.4902   0.03545    0.1366  0.003572
[Thu Apr  1 13:05:47 2021], Epoch:[122/300]  giou:0.0488, obj:0.1889, cls:0.0055, Total:0.2432, bboxes:398, iter:900    0.7529    0.7575    0.7041    0.4905   0.03543    0.1366  0.003568
[Thu Apr  1 13:17:50 2021], Epoch:[123/300]  giou:0.0427, obj:0.1167, cls:0.0054, Total:0.1649, bboxes:864, iter:900    0.7542    0.7583    0.7063    0.4911   0.03541    0.1365  0.003563
[Thu Apr  1 13:29:42 2021], Epoch:[124/300]  giou:0.0424, obj:0.1013, cls:0.0053, Total:0.1491, bboxes:561, iter:900    0.7538    0.7581    0.7046     0.491   0.03539    0.1364  0.003561
[Thu Apr  1 13:41:51 2021], Epoch:[125/300]  giou:0.0502, obj:0.2009, cls:0.0069, Total:0.2581, bboxes:609, iter:900     0.754    0.7576    0.7044    0.4909   0.03537    0.1364  0.003557
[Thu Apr  1 13:53:52 2021], Epoch:[126/300]  giou:0.0454, obj:0.1267, cls:0.0055, Total:0.1776, bboxes:697, iter:900    0.7532    0.7586    0.7044    0.4912   0.03536    0.1364  0.003555
[Thu Apr  1 14:06:07 2021], Epoch:[127/300]  giou:0.0433, obj:0.1043, cls:0.0059, Total:0.1535, bboxes:475, iter:900    0.7543    0.7605    0.7068    0.4924   0.03534    0.1363  0.003553
[Thu Apr  1 14:18:05 2021], Epoch:[128/300]  giou:0.0454, obj:0.1347, cls:0.0060, Total:0.1861, bboxes:349, iter:900    0.7539      0.76     0.707    0.4924   0.03533    0.1363   0.00355
[Thu Apr  1 14:30:11 2021], Epoch:[129/300]  giou:0.0433, obj:0.1116, cls:0.0058, Total:0.1607, bboxes:820, iter:900    0.7533    0.7598    0.7071    0.4925   0.03531    0.1363  0.003548
[Thu Apr  1 14:42:09 2021], Epoch:[130/300]  giou:0.0428, obj:0.1096, cls:0.0061, Total:0.1585, bboxes:293, iter:900    0.7529    0.7604    0.7071    0.4925    0.0353    0.1363  0.003548
[Thu Apr  1 14:54:11 2021], Epoch:[131/300]  giou:0.0413, obj:0.0869, cls:0.0060, Total:0.1342, bboxes:604, iter:900    0.7527    0.7601    0.7071    0.4924   0.03528    0.1362  0.003547
[Thu Apr  1 15:06:20 2021], Epoch:[132/300]  giou:0.0506, obj:0.1723, cls:0.0072, Total:0.2301, bboxes:510, iter:900     0.753    0.7598    0.7071    0.4927   0.03526    0.1362  0.003546
[Thu Apr  1 15:18:21 2021], Epoch:[133/300]  giou:0.0416, obj:0.1007, cls:0.0051, Total:0.1473, bboxes:388, iter:900    0.7525    0.7602     0.707    0.4927   0.03524    0.1362  0.003544
[Thu Apr  1 15:30:24 2021], Epoch:[134/300]  giou:0.0478, obj:0.1904, cls:0.0054, Total:0.2436, bboxes:774, iter:900    0.7523    0.7599    0.7071    0.4931   0.03523    0.1362  0.003543
[Thu Apr  1 15:42:27 2021], Epoch:[135/300]  giou:0.0521, obj:0.2371, cls:0.0065, Total:0.2957, bboxes:751, iter:900    0.7532    0.7599     0.707    0.4934   0.03522    0.1361  0.003542
[Thu Apr  1 15:54:33 2021], Epoch:[136/300]  giou:0.0474, obj:0.1450, cls:0.0055, Total:0.1979, bboxes:695, iter:900    0.7534    0.7596    0.7069    0.4933   0.03521    0.1361  0.003541
[Thu Apr  1 16:06:36 2021], Epoch:[137/300]  giou:0.0402, obj:0.0893, cls:0.0038, Total:0.1333, bboxes:816, iter:900    0.7525    0.7594    0.7071    0.4938    0.0352    0.1361   0.00354
[Thu Apr  1 16:18:44 2021], Epoch:[138/300]  giou:0.0385, obj:0.0750, cls:0.0058, Total:0.1193, bboxes:700, iter:900    0.7527    0.7595     0.707    0.4939   0.03518     0.136   0.00354
[Thu Apr  1 16:30:33 2021], Epoch:[139/300]  giou:0.0409, obj:0.0919, cls:0.0050, Total:0.1378, bboxes:580, iter:900    0.7522    0.7586     0.705    0.4936   0.03516     0.136  0.003538
[Thu Apr  1 16:42:32 2021], Epoch:[140/300]  giou:0.0471, obj:0.1178, cls:0.0057, Total:0.1706, bboxes:559, iter:900    0.7524    0.7587     0.705    0.4938   0.03515    0.1359  0.003537
[Thu Apr  1 16:54:47 2021], Epoch:[141/300]  giou:0.0460, obj:0.1314, cls:0.0058, Total:0.1832, bboxes:409, iter:900    0.7523    0.7585    0.7049    0.4937   0.03514    0.1359  0.003536
[Thu Apr  1 17:06:43 2021], Epoch:[142/300]  giou:0.0451, obj:0.1068, cls:0.0054, Total:0.1573, bboxes:596, iter:900    0.7524    0.7591    0.7049    0.4939   0.03512    0.1359  0.003535
[Thu Apr  1 17:18:47 2021], Epoch:[143/300]  giou:0.0440, obj:0.1012, cls:0.0061, Total:0.1513, bboxes:671, iter:900     0.752    0.7589    0.7048     0.494   0.03511    0.1359  0.003534
[Thu Apr  1 17:30:44 2021], Epoch:[144/300]  giou:0.0441, obj:0.1162, cls:0.0049, Total:0.1653, bboxes:386, iter:900    0.7517     0.759    0.7049    0.4945    0.0351    0.1359  0.003535
[Thu Apr  1 17:42:48 2021], Epoch:[145/300]  giou:0.0438, obj:0.1245, cls:0.0062, Total:0.1745, bboxes:417, iter:900    0.7519    0.7589     0.705    0.4947    0.0351    0.1358  0.003533
[Thu Apr  1 17:54:46 2021], Epoch:[146/300]  giou:0.0513, obj:0.1488, cls:0.0070, Total:0.2070, bboxes:704, iter:900    0.7514    0.7595    0.7051    0.4949   0.03508    0.1358  0.003533
[Thu Apr  1 18:06:41 2021], Epoch:[147/300]  giou:0.0452, obj:0.1472, cls:0.0051, Total:0.1975, bboxes:410, iter:900    0.7516    0.7599    0.7072    0.4956   0.03507    0.1358  0.003532
[Thu Apr  1 18:18:52 2021], Epoch:[148/300]  giou:0.0395, obj:0.0997, cls:0.0049, Total:0.1441, bboxes:579, iter:900     0.753    0.7604    0.7073    0.4957   0.03506    0.1358  0.003533
[Thu Apr  1 18:30:52 2021], Epoch:[149/300]  giou:0.0495, obj:0.1818, cls:0.0059, Total:0.2372, bboxes:784, iter:900    0.7532    0.7602    0.7073    0.4954   0.03505    0.1357  0.003533
[Thu Apr  1 18:42:52 2021], Epoch:[150/300]  giou:0.0397, obj:0.1006, cls:0.0048, Total:0.1451, bboxes:773, iter:900    0.7533    0.7607    0.7073    0.4957   0.03504    0.1357  0.003533
[Thu Apr  1 18:54:56 2021], Epoch:[151/300]  giou:0.0448, obj:0.1176, cls:0.0055, Total:0.1678, bboxes:704, iter:900    0.7543    0.7607    0.7074    0.4957   0.03503    0.1357  0.003533
[Thu Apr  1 19:07:06 2021], Epoch:[152/300]  giou:0.0394, obj:0.0929, cls:0.0052, Total:0.1375, bboxes:371, iter:900    0.7548    0.7599    0.7074    0.4954   0.03502    0.1357  0.003533
[Thu Apr  1 19:19:06 2021], Epoch:[153/300]  giou:0.0424, obj:0.0980, cls:0.0060, Total:0.1464, bboxes:537, iter:900    0.7546    0.7598    0.7075    0.4954   0.03501    0.1357  0.003531
[Thu Apr  1 19:31:13 2021], Epoch:[154/300]  giou:0.0376, obj:0.0945, cls:0.0047, Total:0.1368, bboxes:691, iter:900    0.7552      0.76    0.7075    0.4955     0.035    0.1357  0.003531
[Thu Apr  1 19:43:15 2021], Epoch:[155/300]  giou:0.0487, obj:0.1443, cls:0.0067, Total:0.1996, bboxes:778, iter:900    0.7548    0.7604    0.7075    0.4957   0.03499    0.1356   0.00353
[Thu Apr  1 19:55:25 2021], Epoch:[156/300]  giou:0.0418, obj:0.1054, cls:0.0050, Total:0.1521, bboxes:518, iter:900    0.7546    0.7608    0.7075    0.4957   0.03498    0.1356   0.00353
[Thu Apr  1 20:07:37 2021], Epoch:[157/300]  giou:0.0451, obj:0.1331, cls:0.0056, Total:0.1838, bboxes:538, iter:900    0.7544    0.7607    0.7075    0.4955   0.03497    0.1356   0.00353
[Thu Apr  1 20:19:41 2021], Epoch:[158/300]  giou:0.0403, obj:0.1134, cls:0.0048, Total:0.1586, bboxes:748, iter:900    0.7539    0.7612    0.7076    0.4956   0.03496    0.1356  0.003529
[Thu Apr  1 20:31:55 2021], Epoch:[159/300]  giou:0.0438, obj:0.1029, cls:0.0055, Total:0.1522, bboxes:432, iter:900    0.7541    0.7607    0.7077    0.4955   0.03495    0.1356  0.003529
[Thu Apr  1 20:44:00 2021], Epoch:[160/300]  giou:0.0454, obj:0.1366, cls:0.0057, Total:0.1877, bboxes:504, iter:900    0.7541    0.7606    0.7076    0.4954   0.03494    0.1356  0.003528
[Thu Apr  1 20:56:12 2021], Epoch:[161/300]  giou:0.0453, obj:0.1450, cls:0.0053, Total:0.1956, bboxes:575, iter:900    0.7544    0.7606    0.7076    0.4955   0.03494    0.1355  0.003528
[Thu Apr  1 21:08:08 2021], Epoch:[162/300]  giou:0.0421, obj:0.1158, cls:0.0044, Total:0.1622, bboxes:378, iter:900    0.7547    0.7605    0.7076    0.4955   0.03492    0.1355  0.003528
[Thu Apr  1 21:20:14 2021], Epoch:[163/300]  giou:0.0430, obj:0.1293, cls:0.0062, Total:0.1785, bboxes:764, iter:900    0.7544    0.7609    0.7076    0.4957   0.03492    0.1355  0.003528
[Thu Apr  1 21:32:06 2021], Epoch:[164/300]  giou:0.0403, obj:0.1003, cls:0.0045, Total:0.1450, bboxes:468, iter:900    0.7551    0.7607    0.7076    0.4958   0.03491    0.1355  0.003527
[Thu Apr  1 21:44:05 2021], Epoch:[165/300]  giou:0.0459, obj:0.1396, cls:0.0060, Total:0.1915, bboxes:478, iter:900    0.7557     0.761    0.7076    0.4959    0.0349    0.1355  0.003527
[Thu Apr  1 21:56:00 2021], Epoch:[166/300]  giou:0.0380, obj:0.0837, cls:0.0041, Total:0.1258, bboxes:766, iter:900    0.7555    0.7601    0.7075    0.4956   0.03489    0.1354  0.003526
[Thu Apr  1 22:08:16 2021], Epoch:[167/300]  giou:0.0436, obj:0.1067, cls:0.0059, Total:0.1562, bboxes:846, iter:900    0.7558    0.7601    0.7073    0.4957   0.03489    0.1354  0.003525
[Thu Apr  1 22:20:13 2021], Epoch:[168/300]  giou:0.0452, obj:0.1460, cls:0.0051, Total:0.1962, bboxes:457, iter:900    0.7565      0.76    0.7074    0.4958   0.03488    0.1354  0.003525
[Thu Apr  1 22:32:04 2021], Epoch:[169/300]  giou:0.0428, obj:0.1036, cls:0.0051, Total:0.1516, bboxes:582, iter:900    0.7565    0.7595    0.7073    0.4958   0.03487    0.1354  0.003525
[Thu Apr  1 22:44:05 2021], Epoch:[170/300]  giou:0.0418, obj:0.0890, cls:0.0047, Total:0.1355, bboxes:550, iter:900    0.7573    0.7605    0.7073     0.496   0.03486    0.1354  0.003525
[Thu Apr  1 22:56:08 2021], Epoch:[171/300]  giou:0.0463, obj:0.1588, cls:0.0078, Total:0.2129, bboxes:541, iter:900    0.7576    0.7602    0.7074    0.4962   0.03486    0.1354  0.003525
[Thu Apr  1 23:08:07 2021], Epoch:[172/300]  giou:0.0524, obj:0.2133, cls:0.0079, Total:0.2736, bboxes:554, iter:900    0.7582      0.76    0.7074    0.4963   0.03485    0.1354  0.003525
[Thu Apr  1 23:20:15 2021], Epoch:[173/300]  giou:0.0439, obj:0.0832, cls:0.0061, Total:0.1331, bboxes:394, iter:900    0.7584    0.7596    0.7073    0.4962   0.03484    0.1353  0.003525
[Thu Apr  1 23:32:18 2021], Epoch:[174/300]  giou:0.0432, obj:0.1206, cls:0.0066, Total:0.1704, bboxes:611, iter:900    0.7594    0.7596    0.7072    0.4961   0.03483    0.1353  0.003525
[Thu Apr  1 23:44:15 2021], Epoch:[175/300]  giou:0.0383, obj:0.0865, cls:0.0062, Total:0.1310, bboxes:499, iter:900    0.7591    0.7592    0.7072     0.496   0.03483    0.1353  0.003524
[Thu Apr  1 23:56:26 2021], Epoch:[176/300]  giou:0.0360, obj:0.0653, cls:0.0043, Total:0.1056, bboxes:454, iter:900    0.7599    0.7588    0.7072     0.496   0.03482    0.1353  0.003524
[Fri Apr  2 00:08:34 2021], Epoch:[177/300]  giou:0.0479, obj:0.1713, cls:0.0067, Total:0.2259, bboxes:716, iter:900    0.7601    0.7582    0.7052    0.4955   0.03481    0.1353  0.003524
[Fri Apr  2 00:20:43 2021], Epoch:[178/300]  giou:0.0526, obj:0.2236, cls:0.0075, Total:0.2837, bboxes:526, iter:900    0.7598    0.7579    0.7051    0.4956   0.03481    0.1353  0.003523
[Fri Apr  2 00:32:53 2021], Epoch:[179/300]  giou:0.0387, obj:0.0815, cls:0.0043, Total:0.1245, bboxes:393, iter:900    0.7604     0.758    0.7052    0.4957    0.0348    0.1353  0.003523
[Fri Apr  2 00:45:01 2021], Epoch:[180/300]  giou:0.0400, obj:0.0900, cls:0.0049, Total:0.1349, bboxes:584, iter:900    0.7607    0.7583    0.7053    0.4959   0.03479    0.1353  0.003522
[Fri Apr  2 00:57:00 2021], Epoch:[181/300]  giou:0.0375, obj:0.0916, cls:0.0052, Total:0.1343, bboxes:452, iter:900    0.7602     0.758    0.7052    0.4959   0.03479    0.1352  0.003522
[Fri Apr  2 01:08:57 2021], Epoch:[182/300]  giou:0.0409, obj:0.0932, cls:0.0046, Total:0.1387, bboxes:649, iter:900    0.7605    0.7568    0.7052    0.4956   0.03478    0.1352  0.003522
[Fri Apr  2 01:21:08 2021], Epoch:[183/300]  giou:0.0372, obj:0.0817, cls:0.0041, Total:0.1231, bboxes:482, iter:900    0.7602    0.7567    0.7053    0.4956   0.03477    0.1352  0.003522
[Fri Apr  2 01:33:15 2021], Epoch:[184/300]  giou:0.0429, obj:0.1258, cls:0.0056, Total:0.1743, bboxes:926, iter:900    0.7601    0.7567    0.7053    0.4957   0.03477    0.1352  0.003521
[Fri Apr  2 01:45:11 2021], Epoch:[185/300]  giou:0.0403, obj:0.1071, cls:0.0053, Total:0.1526, bboxes:549, iter:900    0.7606    0.7568    0.7052    0.4959   0.03476    0.1352  0.003521
[Fri Apr  2 01:57:20 2021], Epoch:[186/300]  giou:0.0419, obj:0.1381, cls:0.0061, Total:0.1862, bboxes:598, iter:900    0.7606    0.7568    0.7053    0.4961   0.03476    0.1352  0.003521
[Fri Apr  2 02:09:28 2021], Epoch:[187/300]  giou:0.0367, obj:0.0769, cls:0.0055, Total:0.1190, bboxes:618, iter:900    0.7611    0.7568    0.7052    0.4959   0.03475    0.1352  0.003521
[Fri Apr  2 02:21:28 2021], Epoch:[188/300]  giou:0.0421, obj:0.1223, cls:0.0052, Total:0.1696, bboxes:844, iter:900    0.7613    0.7572    0.7052    0.4961   0.03474    0.1352  0.003521
[Fri Apr  2 02:33:30 2021], Epoch:[189/300]  giou:0.0473, obj:0.2036, cls:0.0064, Total:0.2573, bboxes:438, iter:900     0.761    0.7567    0.7051    0.4959   0.03474    0.1352  0.003521
[Fri Apr  2 02:45:38 2021], Epoch:[190/300]  giou:0.0380, obj:0.0850, cls:0.0043, Total:0.1273, bboxes:534, iter:900    0.7614    0.7567    0.7052    0.4959   0.03473    0.1351  0.003521
[Fri Apr  2 02:57:49 2021], Epoch:[191/300]  giou:0.0504, obj:0.2065, cls:0.0077, Total:0.2646, bboxes:790, iter:900    0.7618    0.7566    0.7051    0.4958   0.03472    0.1351  0.003521
[Fri Apr  2 03:10:01 2021], Epoch:[192/300]  giou:0.0365, obj:0.0824, cls:0.0043, Total:0.1232, bboxes:803, iter:900    0.7629    0.7566     0.705    0.4958   0.03472    0.1351  0.003521
[Fri Apr  2 03:22:08 2021], Epoch:[193/300]  giou:0.0418, obj:0.1118, cls:0.0054, Total:0.1590, bboxes:601, iter:900    0.7629    0.7565    0.7049    0.4956   0.03471    0.1351  0.003521
[Fri Apr  2 03:34:08 2021], Epoch:[194/300]  giou:0.0465, obj:0.1957, cls:0.0064, Total:0.2487, bboxes:615, iter:900    0.7631    0.7568    0.7049     0.496   0.03471    0.1351  0.003521
[Fri Apr  2 03:46:15 2021], Epoch:[195/300]  giou:0.0364, obj:0.0755, cls:0.0048, Total:0.1167, bboxes:766, iter:900    0.7633    0.7567    0.7048    0.4958    0.0347    0.1351  0.003521
[Fri Apr  2 03:58:22 2021], Epoch:[196/300]  giou:0.0463, obj:0.1550, cls:0.0056, Total:0.2068, bboxes:484, iter:900    0.7633    0.7568    0.7048    0.4959   0.03469    0.1351  0.003521
[Fri Apr  2 04:10:24 2021], Epoch:[197/300]  giou:0.0459, obj:0.1565, cls:0.0074, Total:0.2098, bboxes:335, iter:900    0.7635    0.7568    0.7047    0.4959   0.03469    0.1351  0.003521
[Fri Apr  2 04:22:14 2021], Epoch:[198/300]  giou:0.0428, obj:0.0996, cls:0.0061, Total:0.1485, bboxes:608, iter:900    0.7634    0.7566    0.7047    0.4959   0.03468    0.1351  0.003521
[Fri Apr  2 04:34:23 2021], Epoch:[199/300]  giou:0.0454, obj:0.1754, cls:0.0061, Total:0.2269, bboxes:495, iter:900    0.7633    0.7566    0.7048    0.4959   0.03468     0.135  0.003521
[Fri Apr  2 04:46:16 2021], Epoch:[200/300]  giou:0.0487, obj:0.2136, cls:0.0063, Total:0.2686, bboxes:676, iter:900    0.7628    0.7561    0.7045    0.4957   0.03467     0.135  0.003521
[Fri Apr  2 04:58:22 2021], Epoch:[201/300]  giou:0.0391, obj:0.0964, cls:0.0044, Total:0.1398, bboxes:463, iter:900    0.7631    0.7556    0.7045    0.4955   0.03466     0.135  0.003521
[Fri Apr  2 05:10:23 2021], Epoch:[202/300]  giou:0.0350, obj:0.0812, cls:0.0046, Total:0.1208, bboxes:512, iter:900    0.7632    0.7554    0.7045    0.4954   0.03466     0.135  0.003521
[Fri Apr  2 05:22:30 2021], Epoch:[203/300]  giou:0.0404, obj:0.1137, cls:0.0057, Total:0.1598, bboxes:711, iter:900    0.7635    0.7551    0.7046    0.4953   0.03465     0.135  0.003521
[Fri Apr  2 05:34:31 2021], Epoch:[204/300]  giou:0.0508, obj:0.1939, cls:0.0066, Total:0.2513, bboxes:420, iter:900    0.7636    0.7551    0.7046    0.4955   0.03465     0.135  0.003521
[Fri Apr  2 05:46:31 2021], Epoch:[205/300]  giou:0.0515, obj:0.2150, cls:0.0074, Total:0.2739, bboxes:290, iter:900    0.7637    0.7555    0.7046    0.4957   0.03464     0.135  0.003522
[Fri Apr  2 05:58:37 2021], Epoch:[206/300]  giou:0.0423, obj:0.1084, cls:0.0059, Total:0.1566, bboxes:589, iter:900    0.7643    0.7558    0.7046    0.4962   0.03463     0.135  0.003522
[Fri Apr  2 06:10:43 2021], Epoch:[207/300]  giou:0.0386, obj:0.1046, cls:0.0047, Total:0.1478, bboxes:742, iter:900    0.7638    0.7553    0.7046    0.4958   0.03463    0.1349  0.003521
[Fri Apr  2 06:22:44 2021], Epoch:[208/300]  giou:0.0421, obj:0.1271, cls:0.0051, Total:0.1743, bboxes:806, iter:900    0.7641    0.7548    0.7046    0.4955   0.03462    0.1349  0.003522
[Fri Apr  2 06:34:54 2021], Epoch:[209/300]  giou:0.0416, obj:0.1170, cls:0.0048, Total:0.1634, bboxes:678, iter:900    0.7644    0.7547    0.7046    0.4956   0.03462    0.1349  0.003522
[Fri Apr  2 06:47:05 2021], Epoch:[210/300]  giou:0.0400, obj:0.1011, cls:0.0051, Total:0.1463, bboxes:411, iter:900    0.7642    0.7546    0.7046    0.4957   0.03461    0.1349  0.003522
[Fri Apr  2 06:59:13 2021], Epoch:[211/300]  giou:0.0511, obj:0.1887, cls:0.0061, Total:0.2459, bboxes:540, iter:900    0.7645    0.7549    0.7045    0.4958   0.03461    0.1349  0.003522
[Fri Apr  2 07:11:08 2021], Epoch:[212/300]  giou:0.0403, obj:0.1008, cls:0.0051, Total:0.1462, bboxes:651, iter:900    0.7651    0.7554    0.7046    0.4961    0.0346    0.1349  0.003522
[Fri Apr  2 07:23:05 2021], Epoch:[213/300]  giou:0.0443, obj:0.1172, cls:0.0057, Total:0.1672, bboxes:652, iter:900    0.7658    0.7556    0.7045    0.4961   0.03459    0.1349  0.003522
[Fri Apr  2 07:35:10 2021], Epoch:[214/300]  giou:0.0415, obj:0.1282, cls:0.0062, Total:0.1759, bboxes:560, iter:900     0.766    0.7547    0.7041    0.4961   0.03459    0.1349  0.003523
[Fri Apr  2 07:47:16 2021], Epoch:[215/300]  giou:0.0405, obj:0.1397, cls:0.0054, Total:0.1855, bboxes:544, iter:900    0.7662    0.7547     0.704    0.4961   0.03458    0.1348  0.003523
[Fri Apr  2 07:59:24 2021], Epoch:[216/300]  giou:0.0409, obj:0.0847, cls:0.0051, Total:0.1307, bboxes:580, iter:900    0.7671    0.7545    0.7032    0.4962   0.03458    0.1348  0.003522
[Fri Apr  2 08:11:35 2021], Epoch:[217/300]  giou:0.0401, obj:0.1042, cls:0.0056, Total:0.1499, bboxes:580, iter:900    0.7667    0.7545    0.7031    0.4961   0.03457    0.1348  0.003522
[Fri Apr  2 08:23:39 2021], Epoch:[218/300]  giou:0.0465, obj:0.1183, cls:0.0051, Total:0.1700, bboxes:736, iter:900    0.7669    0.7545    0.7035     0.496   0.03456    0.1348  0.003523
[Fri Apr  2 08:35:36 2021], Epoch:[219/300]  giou:0.0471, obj:0.1905, cls:0.0058, Total:0.2434, bboxes:590, iter:900    0.7669    0.7546    0.7039    0.4961   0.03457    0.1348  0.003522
[Fri Apr  2 08:47:42 2021], Epoch:[220/300]  giou:0.0514, obj:0.1940, cls:0.0068, Total:0.2521, bboxes:571, iter:900    0.7672    0.7545    0.7037    0.4964   0.03456    0.1348  0.003522
[Fri Apr  2 08:59:47 2021], Epoch:[221/300]  giou:0.0383, obj:0.0859, cls:0.0047, Total:0.1288, bboxes:752, iter:900    0.7679    0.7544    0.7027    0.4963   0.03455    0.1348  0.003523
[Fri Apr  2 09:11:47 2021], Epoch:[222/300]  giou:0.0469, obj:0.1395, cls:0.0067, Total:0.1930, bboxes:575, iter:900    0.7682    0.7545    0.7032    0.4966   0.03455    0.1348  0.003523
[Fri Apr  2 09:24:12 2021], Epoch:[223/300]  giou:0.0376, obj:0.0884, cls:0.0049, Total:0.1308, bboxes:601, iter:900    0.7679    0.7544    0.7031    0.4966   0.03454    0.1348  0.003523
[Fri Apr  2 09:36:15 2021], Epoch:[224/300]  giou:0.0388, obj:0.0941, cls:0.0064, Total:0.1392, bboxes:523, iter:900    0.7689    0.7544    0.7023    0.4965   0.03454    0.1347  0.003524
[Fri Apr  2 09:48:27 2021], Epoch:[225/300]  giou:0.0355, obj:0.0813, cls:0.0049, Total:0.1217, bboxes:738, iter:900    0.7692    0.7543    0.7021    0.4964   0.03453    0.1347  0.003524
[Fri Apr  2 10:00:25 2021], Epoch:[226/300]  giou:0.0449, obj:0.1646, cls:0.0053, Total:0.2148, bboxes:867, iter:900    0.7696    0.7547    0.7021    0.4965   0.03453    0.1347  0.003523
[Fri Apr  2 10:12:22 2021], Epoch:[227/300]  giou:0.0376, obj:0.0783, cls:0.0046, Total:0.1205, bboxes:512, iter:900    0.7698    0.7546    0.7021    0.4965   0.03452    0.1347  0.003522
[Fri Apr  2 10:24:17 2021], Epoch:[228/300]  giou:0.0470, obj:0.1811, cls:0.0055, Total:0.2336, bboxes:489, iter:900    0.7697    0.7546    0.7021    0.4965   0.03452    0.1347  0.003522
[Fri Apr  2 10:36:15 2021], Epoch:[229/300]  giou:0.0363, obj:0.0875, cls:0.0047, Total:0.1285, bboxes:579, iter:900    0.7699    0.7543    0.7021    0.4964   0.03451    0.1347  0.003523
[Fri Apr  2 10:48:24 2021], Epoch:[230/300]  giou:0.0380, obj:0.0868, cls:0.0060, Total:0.1308, bboxes:616, iter:900      0.77    0.7542    0.7017    0.4964    0.0345    0.1347  0.003523
[Fri Apr  2 11:00:24 2021], Epoch:[231/300]  giou:0.0368, obj:0.0803, cls:0.0043, Total:0.1214, bboxes:753, iter:900    0.7705     0.754    0.7012    0.4964    0.0345    0.1347  0.003522
[Fri Apr  2 11:12:28 2021], Epoch:[232/300]  giou:0.0439, obj:0.1325, cls:0.0062, Total:0.1826, bboxes:580, iter:900    0.7703    0.7531    0.7006     0.496    0.0345    0.1346  0.003522
[Fri Apr  2 11:24:34 2021], Epoch:[233/300]  giou:0.0413, obj:0.1028, cls:0.0058, Total:0.1498, bboxes:653, iter:900    0.7707     0.753    0.7004     0.496   0.03449    0.1346  0.003523
[Fri Apr  2 11:36:34 2021], Epoch:[234/300]  giou:0.0430, obj:0.1228, cls:0.0054, Total:0.1712, bboxes:598, iter:900    0.7713    0.7534    0.7008    0.4962   0.03449    0.1346  0.003522
[Fri Apr  2 11:48:33 2021], Epoch:[235/300]  giou:0.0376, obj:0.0813, cls:0.0044, Total:0.1233, bboxes:542, iter:900    0.7725    0.7538    0.7005    0.4963   0.03448    0.1346  0.003523
[Fri Apr  2 12:00:38 2021], Epoch:[236/300]  giou:0.0470, obj:0.1631, cls:0.0070, Total:0.2170, bboxes:481, iter:900    0.7719    0.7525    0.6999    0.4954   0.03448    0.1346  0.003523
[Fri Apr  2 12:12:47 2021], Epoch:[237/300]  giou:0.0463, obj:0.2003, cls:0.0058, Total:0.2524, bboxes:529, iter:900    0.7721    0.7525    0.6993    0.4955   0.03448    0.1346  0.003522
[Fri Apr  2 12:24:43 2021], Epoch:[238/300]  giou:0.0396, obj:0.1123, cls:0.0053, Total:0.1571, bboxes:550, iter:900    0.7723    0.7523    0.6992    0.4952   0.03447    0.1346  0.003522
[Fri Apr  2 12:36:57 2021], Epoch:[239/300]  giou:0.0383, obj:0.1045, cls:0.0042, Total:0.1470, bboxes:483, iter:900    0.7712    0.7518    0.6983    0.4951   0.03447    0.1346  0.003522
[Fri Apr  2 12:49:17 2021], Epoch:[240/300]  giou:0.0369, obj:0.0888, cls:0.0064, Total:0.1322, bboxes:800, iter:900     0.772    0.7518    0.6983    0.4952   0.03446    0.1346  0.003522
[Fri Apr  2 13:01:26 2021], Epoch:[241/300]  giou:0.0390, obj:0.1078, cls:0.0052, Total:0.1520, bboxes:361, iter:900    0.7723    0.7516    0.6983    0.4951   0.03446    0.1346  0.003522
[Fri Apr  2 13:13:29 2021], Epoch:[242/300]  giou:0.0397, obj:0.1146, cls:0.0052, Total:0.1596, bboxes:524, iter:900    0.7725    0.7514    0.6983    0.4948   0.03445    0.1345  0.003522
[Fri Apr  2 13:25:31 2021], Epoch:[243/300]  giou:0.0386, obj:0.1072, cls:0.0056, Total:0.1514, bboxes:782, iter:900     0.773    0.7513    0.6983    0.4949   0.03445    0.1345  0.003523
[Fri Apr  2 13:37:33 2021], Epoch:[244/300]  giou:0.0365, obj:0.0832, cls:0.0050, Total:0.1247, bboxes:625, iter:900    0.7726    0.7508    0.6971    0.4948   0.03444    0.1345  0.003523
[Fri Apr  2 13:49:24 2021], Epoch:[245/300]  giou:0.0389, obj:0.0962, cls:0.0055, Total:0.1407, bboxes:552, iter:900    0.7728    0.7508    0.6972    0.4947   0.03444    0.1345  0.003523
[Fri Apr  2 14:01:17 2021], Epoch:[246/300]  giou:0.0408, obj:0.1086, cls:0.0053, Total:0.1547, bboxes:656, iter:900    0.7728    0.7502    0.6972    0.4945   0.03444    0.1345  0.003523
[Fri Apr  2 14:13:22 2021], Epoch:[247/300]  giou:0.0418, obj:0.1105, cls:0.0053, Total:0.1576, bboxes:667, iter:900    0.7729      0.75    0.6972    0.4945   0.03443    0.1345  0.003523
[Fri Apr  2 14:25:24 2021], Epoch:[248/300]  giou:0.0397, obj:0.0997, cls:0.0050, Total:0.1444, bboxes:431, iter:900    0.7734    0.7504    0.6971    0.4949   0.03442    0.1345  0.003523
[Fri Apr  2 14:37:36 2021], Epoch:[249/300]  giou:0.0441, obj:0.1572, cls:0.0054, Total:0.2066, bboxes:719, iter:900    0.7738    0.7503     0.697    0.4948   0.03442    0.1345  0.003523
[Fri Apr  2 14:49:25 2021], Epoch:[250/300]  giou:0.0391, obj:0.0987, cls:0.0062, Total:0.1440, bboxes:574, iter:900    0.7738    0.7494     0.697    0.4944   0.03442    0.1345  0.003523
[Fri Apr  2 15:01:36 2021], Epoch:[251/300]  giou:0.0445, obj:0.1897, cls:0.0064, Total:0.2407, bboxes:685, iter:900    0.7739    0.7489     0.697    0.4945   0.03441    0.1345  0.003522
[Fri Apr  2 15:13:33 2021], Epoch:[252/300]  giou:0.0429, obj:0.1618, cls:0.0059, Total:0.2105, bboxes:528, iter:900    0.7737    0.7485    0.6971    0.4943   0.03441    0.1345  0.003522
[Fri Apr  2 15:25:28 2021], Epoch:[253/300]  giou:0.0356, obj:0.0823, cls:0.0049, Total:0.1228, bboxes:666, iter:900    0.7739     0.748    0.6971    0.4943   0.03441    0.1345  0.003522
[Fri Apr  2 15:37:25 2021], Epoch:[254/300]  giou:0.0344, obj:0.0814, cls:0.0047, Total:0.1206, bboxes:741, iter:900    0.7736    0.7478     0.697    0.4943    0.0344    0.1344  0.003522
[Fri Apr  2 15:49:27 2021], Epoch:[255/300]  giou:0.0475, obj:0.1495, cls:0.0081, Total:0.2050, bboxes:603, iter:900    0.7734    0.7477     0.697    0.4944    0.0344    0.1344  0.003522
[Fri Apr  2 16:01:37 2021], Epoch:[256/300]  giou:0.0362, obj:0.0968, cls:0.0042, Total:0.1372, bboxes:415, iter:900    0.7734    0.7472     0.697    0.4942    0.0344    0.1344  0.003522
[Fri Apr  2 16:13:46 2021], Epoch:[257/300]  giou:0.0438, obj:0.1196, cls:0.0057, Total:0.1691, bboxes:793, iter:900    0.7738    0.7476     0.697    0.4943   0.03439    0.1344  0.003522
[Fri Apr  2 16:25:45 2021], Epoch:[258/300]  giou:0.0368, obj:0.0816, cls:0.0049, Total:0.1233, bboxes:596, iter:900    0.7744    0.7476     0.697    0.4944   0.03439    0.1344  0.003522
[Fri Apr  2 16:37:45 2021], Epoch:[259/300]  giou:0.0377, obj:0.0853, cls:0.0052, Total:0.1282, bboxes:642, iter:900     0.774     0.747    0.6971    0.4944   0.03439    0.1344  0.003522
[Fri Apr  2 16:49:50 2021], Epoch:[260/300]  giou:0.0356, obj:0.0937, cls:0.0054, Total:0.1347, bboxes:533, iter:900    0.7737    0.7469    0.6972    0.4945   0.03438    0.1344  0.003522
[Fri Apr  2 17:01:50 2021], Epoch:[261/300]  giou:0.0430, obj:0.1158, cls:0.0065, Total:0.1652, bboxes:458, iter:900    0.7739    0.7469    0.6971    0.4945   0.03438    0.1344  0.003521
[Fri Apr  2 17:14:01 2021], Epoch:[262/300]  giou:0.0377, obj:0.0817, cls:0.0048, Total:0.1243, bboxes:700, iter:900    0.7737    0.7468    0.6971    0.4946   0.03438    0.1344  0.003521
[Fri Apr  2 17:26:16 2021], Epoch:[263/300]  giou:0.0472, obj:0.1762, cls:0.0071, Total:0.2306, bboxes:459, iter:900     0.774    0.7466    0.6971    0.4945   0.03437    0.1344  0.003521
[Fri Apr  2 17:38:15 2021], Epoch:[264/300]  giou:0.0364, obj:0.0844, cls:0.0049, Total:0.1257, bboxes:679, iter:900     0.774    0.7464    0.6971    0.4945   0.03437    0.1344   0.00352
[Fri Apr  2 17:50:15 2021], Epoch:[265/300]  giou:0.0471, obj:0.1994, cls:0.0054, Total:0.2519, bboxes:405, iter:900    0.7741    0.7462    0.6972    0.4946   0.03437    0.1344  0.003521
[Fri Apr  2 18:02:21 2021], Epoch:[266/300]  giou:0.0474, obj:0.1700, cls:0.0068, Total:0.2242, bboxes:276, iter:900    0.7743    0.7461    0.6973    0.4947   0.03436    0.1344  0.003521
[Fri Apr  2 18:14:30 2021], Epoch:[267/300]  giou:0.0381, obj:0.0982, cls:0.0046, Total:0.1409, bboxes:599, iter:900     0.774    0.7456    0.6973    0.4948   0.03436    0.1344  0.003521
[Fri Apr  2 18:26:39 2021], Epoch:[268/300]  giou:0.0369, obj:0.0888, cls:0.0048, Total:0.1305, bboxes:499, iter:900    0.7743    0.7458    0.6974    0.4949   0.03436    0.1344  0.003521
[Fri Apr  2 18:38:45 2021], Epoch:[269/300]  giou:0.0392, obj:0.0833, cls:0.0053, Total:0.1277, bboxes:460, iter:900    0.7746    0.7449    0.6952    0.4944   0.03435    0.1344  0.003521
[Fri Apr  2 18:50:48 2021], Epoch:[270/300]  giou:0.0410, obj:0.0996, cls:0.0047, Total:0.1453, bboxes:541, iter:900    0.7752     0.745    0.6952    0.4946   0.03435    0.1343  0.003521
[Fri Apr  2 19:02:50 2021], Epoch:[271/300]  giou:0.0403, obj:0.0956, cls:0.0068, Total:0.1426, bboxes:492, iter:900    0.7743    0.7452    0.6973    0.4948   0.03434    0.1343  0.003521
[Fri Apr  2 19:14:48 2021], Epoch:[272/300]  giou:0.0416, obj:0.1236, cls:0.0057, Total:0.1709, bboxes:997, iter:900    0.7749    0.7447    0.6952    0.4945   0.03434    0.1343  0.003521
[Fri Apr  2 19:26:52 2021], Epoch:[273/300]  giou:0.0440, obj:0.1400, cls:0.0050, Total:0.1889, bboxes:506, iter:900    0.7753     0.745    0.6973    0.4947   0.03434    0.1343  0.003521
[Fri Apr  2 19:38:52 2021], Epoch:[274/300]  giou:0.0368, obj:0.0859, cls:0.0046, Total:0.1273, bboxes:352, iter:900    0.7756    0.7449    0.6974    0.4946   0.03433    0.1343  0.003521
[Fri Apr  2 19:50:58 2021], Epoch:[275/300]  giou:0.0363, obj:0.0900, cls:0.0049, Total:0.1312, bboxes:578, iter:900    0.7753    0.7444    0.6951    0.4944   0.03433    0.1343  0.003521
[Fri Apr  2 20:03:02 2021], Epoch:[276/300]  giou:0.0472, obj:0.1829, cls:0.0055, Total:0.2356, bboxes:757, iter:900    0.7761    0.7447    0.6973    0.4947   0.03433    0.1343  0.003521
[Fri Apr  2 20:15:01 2021], Epoch:[277/300]  giou:0.0372, obj:0.0781, cls:0.0047, Total:0.1200, bboxes:415, iter:900    0.7759    0.7447    0.6974    0.4947   0.03432    0.1343   0.00352
[Fri Apr  2 20:26:55 2021], Epoch:[278/300]  giou:0.0411, obj:0.1287, cls:0.0044, Total:0.1742, bboxes:629, iter:900    0.7766    0.7446    0.6974    0.4948   0.03432    0.1343   0.00352
[Fri Apr  2 20:39:03 2021], Epoch:[279/300]  giou:0.0366, obj:0.0904, cls:0.0045, Total:0.1315, bboxes:856, iter:900    0.7766    0.7445    0.6974    0.4948   0.03432    0.1343   0.00352
[Fri Apr  2 20:51:01 2021], Epoch:[280/300]  giou:0.0383, obj:0.1043, cls:0.0047, Total:0.1473, bboxes:454, iter:900    0.7766    0.7445    0.6975    0.4949   0.03431    0.1343   0.00352
[Fri Apr  2 21:03:04 2021], Epoch:[281/300]  giou:0.0374, obj:0.0949, cls:0.0051, Total:0.1375, bboxes:947, iter:900    0.7764    0.7444    0.6975    0.4949   0.03431    0.1343   0.00352
[Fri Apr  2 21:15:05 2021], Epoch:[282/300]  giou:0.0398, obj:0.0896, cls:0.0057, Total:0.1352, bboxes:409, iter:900    0.7763    0.7443    0.6975    0.4949   0.03431    0.1343  0.003519
[Fri Apr  2 21:27:11 2021], Epoch:[283/300]  giou:0.0487, obj:0.1843, cls:0.0063, Total:0.2393, bboxes:521, iter:900    0.7767    0.7441    0.6976    0.4949   0.03431    0.1343  0.003519
[Fri Apr  2 21:39:12 2021], Epoch:[284/300]  giou:0.0396, obj:0.0934, cls:0.0051, Total:0.1381, bboxes:684, iter:900    0.7767    0.7436    0.6955    0.4947    0.0343    0.1343  0.003519
[Fri Apr  2 21:51:17 2021], Epoch:[285/300]  giou:0.0398, obj:0.0903, cls:0.0059, Total:0.1360, bboxes:468, iter:900    0.7772    0.7435    0.6954    0.4946    0.0343    0.1343  0.003519
[Fri Apr  2 22:03:38 2021], Epoch:[286/300]  giou:0.0398, obj:0.1123, cls:0.0054, Total:0.1574, bboxes:471, iter:900    0.7772    0.7436    0.6955    0.4948    0.0343    0.1343  0.003518
[Fri Apr  2 22:15:43 2021], Epoch:[287/300]  giou:0.0358, obj:0.0766, cls:0.0048, Total:0.1172, bboxes:702, iter:900    0.7771    0.7431    0.6957    0.4948   0.03429    0.1343  0.003518
[Fri Apr  2 22:27:46 2021], Epoch:[288/300]  giou:0.0417, obj:0.1127, cls:0.0049, Total:0.1593, bboxes:590, iter:900    0.7772     0.743    0.6956    0.4948   0.03429    0.1343  0.003518
[Fri Apr  2 22:39:44 2021], Epoch:[289/300]  giou:0.0469, obj:0.1732, cls:0.0062, Total:0.2262, bboxes:914, iter:900    0.7779    0.7431    0.6957    0.4947   0.03429    0.1343  0.003518
[Fri Apr  2 22:51:51 2021], Epoch:[290/300]  giou:0.0382, obj:0.0941, cls:0.0053, Total:0.1375, bboxes:678, iter:900    0.7781    0.7434    0.6957    0.4949   0.03429    0.1343  0.003518
[Fri Apr  2 23:03:59 2021], Epoch:[291/300]  giou:0.0355, obj:0.0870, cls:0.0043, Total:0.1269, bboxes:751, iter:900    0.7782    0.7433    0.6952    0.4948   0.03428    0.1343  0.003518
[Fri Apr  2 23:15:56 2021], Epoch:[292/300]  giou:0.0401, obj:0.0824, cls:0.0055, Total:0.1280, bboxes:722, iter:900    0.7778    0.7432    0.6946    0.4948   0.03428    0.1343  0.003517
[Fri Apr  2 23:28:04 2021], Epoch:[293/300]  giou:0.0452, obj:0.1835, cls:0.0060, Total:0.2348, bboxes:447, iter:900    0.7781     0.743    0.6939    0.4948   0.03428    0.1343  0.003517
[Fri Apr  2 23:39:57 2021], Epoch:[294/300]  giou:0.0369, obj:0.0729, cls:0.0050, Total:0.1148, bboxes:694, iter:900    0.7782    0.7429    0.6941    0.4949   0.03427    0.1343  0.003517
[Fri Apr  2 23:52:00 2021], Epoch:[295/300]  giou:0.0367, obj:0.0956, cls:0.0039, Total:0.1362, bboxes:721, iter:900    0.7782    0.7429    0.6937    0.4949   0.03427    0.1343  0.003517
[Sat Apr  3 00:04:03 2021], Epoch:[296/300]  giou:0.0343, obj:0.0817, cls:0.0047, Total:0.1208, bboxes:651, iter:900    0.7784    0.7427    0.6934    0.4948   0.03427    0.1343  0.003517
[Sat Apr  3 00:15:58 2021], Epoch:[297/300]  giou:0.0480, obj:0.2161, cls:0.0069, Total:0.2710, bboxes:645, iter:900    0.7782    0.7426    0.6933    0.4948   0.03426    0.1343  0.003517
[Sat Apr  3 00:28:03 2021], Epoch:[298/300]  giou:0.0334, obj:0.0717, cls:0.0046, Total:0.1098, bboxes:627, iter:900    0.7779    0.7425     0.693    0.4948   0.03426    0.1343  0.003516
[Sat Apr  3 00:40:05 2021], Epoch:[299/300]  giou:0.0376, obj:0.0761, cls:0.0041, Total:0.1179, bboxes:357, iter:900    0.7779    0.7421    0.6928    0.4946   0.03425    0.1343  0.003516
[Sat Apr  3 00:52:13 2021], Epoch:[300/300]  giou:0.0373, obj:0.0994, cls:0.0050, Total:0.1417, bboxes:456, iter:900    0.7782    0.7421    0.6923    0.4945   0.03425    0.1343  0.003516
